-- Merging decision tree log ---
manifest
ADDED from /Users/Jason-Lally/Desktop/cs481_final/android/app/src/main/AndroidManifest.xml:1:1-48:12
INJECTED from /Users/Jason-Lally/Desktop/cs481_final/android/app/src/main/AndroidManifest.xml:1:1-48:12
INJECTED from /Users/Jason-Lally/Desktop/cs481_final/android/app/src/main/AndroidManifest.xml:1:1-48:12
INJECTED from /Users/Jason-Lally/Desktop/cs481_final/android/app/src/main/AndroidManifest.xml:1:1-48:12
MERGED from /Users/Jason-Lally/Desktop/cs481_final/android/app/src/main/AndroidManifest.xml:1:1-48:12
MERGED from [:flutter_inappwebview] /Users/Jason-Lally/Desktop/cs481_final/build/flutter_inappwebview/intermediates/library_manifest/debug/AndroidManifest.xml:2:1-20:12
MERGED from [:email_launcher] /Users/Jason-Lally/Desktop/cs481_final/build/email_launcher/intermediates/library_manifest/debug/AndroidManifest.xml:2:1-7:12
MERGED from [:url_launcher] /Users/Jason-Lally/Desktop/cs481_final/build/url_launcher/intermediates/library_manifest/debug/AndroidManifest.xml:2:1-14:12
MERGED from [androidx.appcompat:appcompat:1.0.0] /Users/Jason-Lally/.gradle/caches/transforms-2/files-2.1/d8e69336e21c6a428e8a9e9d99518477/appcompat-1.0.0/AndroidManifest.xml:17:1-22:12
MERGED from [androidx.fragment:fragment:1.1.0] /Users/Jason-Lally/.gradle/caches/transforms-2/files-2.1/0986d0d74b8a2c7da8161f6370fc7744/fragment-1.1.0/AndroidManifest.xml:17:1-24:12
MERGED from [androidx.webkit:webkit:1.2.0] /Users/Jason-Lally/.gradle/caches/transforms-2/files-2.1/8a62ba38241af24f4b0566afddbc48f5/webkit-1.2.0/AndroidManifest.xml:17:1-24:12
MERGED from [androidx.browser:browser:1.2.0] /Users/Jason-Lally/.gradle/caches/transforms-2/files-2.1/84bd3266e257a6ed6137b67f2b6129c6/browser-1.2.0/AndroidManifest.xml:17:1-24:12
MERGED from [androidx.vectordrawable:vectordrawable-animated:1.0.0] /Users/Jason-Lally/.gradle/caches/transforms-2/files-2.1/f64fa5f7ac9fa4f53ef92dad5dfe2353/vectordrawable-animated-1.0.0/AndroidManifest.xml:17:1-22:12
MERGED from [androidx.legacy:legacy-support-core-ui:1.0.0] /Users/Jason-Lally/.gradle/caches/transforms-2/files-2.1/f046f38cf99e9cbe4891b184ce64db19/legacy-support-core-ui-1.0.0/AndroidManifest.xml:17:1-22:12
MERGED from [androidx.viewpager:viewpager:1.0.0] /Users/Jason-Lally/.gradle/caches/transforms-2/files-2.1/28d99d5113324aa067757f8ca41a426f/viewpager-1.0.0/AndroidManifest.xml:17:1-22:12
MERGED from [androidx.legacy:legacy-support-core-utils:1.0.0] /Users/Jason-Lally/.gradle/caches/transforms-2/files-2.1/0f0610cdcf96e6cfa9529b6a3246e3f6/legacy-support-core-utils-1.0.0/AndroidManifest.xml:17:1-22:12
MERGED from [androidx.loader:loader:1.0.0] /Users/Jason-Lally/.gradle/caches/transforms-2/files-2.1/e1bbce6b0d79e8479b70e7bd729bb743/loader-1.0.0/AndroidManifest.xml:17:1-22:12
MERGED from [androidx.activity:activity:1.0.0] /Users/Jason-Lally/.gradle/caches/transforms-2/files-2.1/615cab8ad6393a9c868d48761bbea666/activity-1.0.0/AndroidManifest.xml:17:1-24:12
MERGED from [androidx.vectordrawable:vectordrawable:1.0.0] /Users/Jason-Lally/.gradle/caches/transforms-2/files-2.1/16c2aa160f52ee079d92e59ff0a723a2/vectordrawable-1.0.0/AndroidManifest.xml:17:1-22:12
MERGED from [androidx.coordinatorlayout:coordinatorlayout:1.0.0] /Users/Jason-Lally/.gradle/caches/transforms-2/files-2.1/ae13efc3dbae5c9ee58d4933337fcd21/coordinatorlayout-1.0.0/AndroidManifest.xml:17:1-22:12
MERGED from [androidx.drawerlayout:drawerlayout:1.0.0] /Users/Jason-Lally/.gradle/caches/transforms-2/files-2.1/5bfbe01745d2a29d4e7cd137b17143f4/drawerlayout-1.0.0/AndroidManifest.xml:17:1-22:12
MERGED from [androidx.slidingpanelayout:slidingpanelayout:1.0.0] /Users/Jason-Lally/.gradle/caches/transforms-2/files-2.1/b046e47c43be2b85609c7f97cccc722e/slidingpanelayout-1.0.0/AndroidManifest.xml:17:1-22:12
MERGED from [androidx.customview:customview:1.0.0] /Users/Jason-Lally/.gradle/caches/transforms-2/files-2.1/ef0bef029ab70f5fb29de019060cf5fd/customview-1.0.0/AndroidManifest.xml:17:1-22:12
MERGED from [androidx.swiperefreshlayout:swiperefreshlayout:1.0.0] /Users/Jason-Lally/.gradle/caches/transforms-2/files-2.1/5fdf5da548a469ca3cc39dc72a350a99/swiperefreshlayout-1.0.0/AndroidManifest.xml:17:1-22:12
MERGED from [androidx.asynclayoutinflater:asynclayoutinflater:1.0.0] /Users/Jason-Lally/.gradle/caches/transforms-2/files-2.1/1403af03ba6e6e95b13bf5808de0f892/asynclayoutinflater-1.0.0/AndroidManifest.xml:17:1-22:12
MERGED from [androidx.core:core:1.1.0] /Users/Jason-Lally/.gradle/caches/transforms-2/files-2.1/a528b13ac93e64cafa3d0480e2c93207/core-1.1.0/AndroidManifest.xml:17:1-26:12
MERGED from [androidx.lifecycle:lifecycle-runtime:2.2.0] /Users/Jason-Lally/.gradle/caches/transforms-2/files-2.1/49ede1f7b9aa322a43288e9745adc2db/lifecycle-runtime-2.2.0/AndroidManifest.xml:17:1-24:12
MERGED from [androidx.savedstate:savedstate:1.0.0] /Users/Jason-Lally/.gradle/caches/transforms-2/files-2.1/54d8b8735f730e83f07925f758092af3/savedstate-1.0.0/AndroidManifest.xml:17:1-24:12
MERGED from [androidx.lifecycle:lifecycle-livedata:2.0.0] /Users/Jason-Lally/.gradle/caches/transforms-2/files-2.1/23edc849475fdda61367cb003f9b9f93/lifecycle-livedata-2.0.0/AndroidManifest.xml:17:1-22:12
MERGED from [androidx.lifecycle:lifecycle-livedata-core:2.0.0] /Users/Jason-Lally/.gradle/caches/transforms-2/files-2.1/79f9d65ef8b1c716310f666473a689a7/lifecycle-livedata-core-2.0.0/AndroidManifest.xml:17:1-22:12
MERGED from [androidx.arch.core:core-runtime:2.0.0] /Users/Jason-Lally/.gradle/caches/transforms-2/files-2.1/077300052aa327ee6fc9bbb0ce309b24/core-runtime-2.0.0/AndroidManifest.xml:17:1-22:12
MERGED from [androidx.versionedparcelable:versionedparcelable:1.1.0] /Users/Jason-Lally/.gradle/caches/transforms-2/files-2.1/3a7eb299570065a3866b140e1a95969b/versionedparcelable-1.1.0/AndroidManifest.xml:17:1-27:12
MERGED from [androidx.interpolator:interpolator:1.0.0] /Users/Jason-Lally/.gradle/caches/transforms-2/files-2.1/2ca8bc49d3a28fb6fa3bddf429b143ba/interpolator-1.0.0/AndroidManifest.xml:17:1-22:12
MERGED from [androidx.cursoradapter:cursoradapter:1.0.0] /Users/Jason-Lally/.gradle/caches/transforms-2/files-2.1/fefdd83516e8eeb5097956f9d9af4b04/cursoradapter-1.0.0/AndroidManifest.xml:17:1-22:12
MERGED from [androidx.lifecycle:lifecycle-viewmodel:2.1.0] /Users/Jason-Lally/.gradle/caches/transforms-2/files-2.1/b80fad55c42c418cc210e235056767fb/lifecycle-viewmodel-2.1.0/AndroidManifest.xml:17:1-22:12
MERGED from [androidx.documentfile:documentfile:1.0.0] /Users/Jason-Lally/.gradle/caches/transforms-2/files-2.1/35bca835e72502cae5588ee7a59cf4b0/documentfile-1.0.0/AndroidManifest.xml:17:1-22:12
MERGED from [androidx.localbroadcastmanager:localbroadcastmanager:1.0.0] /Users/Jason-Lally/.gradle/caches/transforms-2/files-2.1/bce9999f881bb3993a5b24e08740cbbf/localbroadcastmanager-1.0.0/AndroidManifest.xml:17:1-22:12
MERGED from [androidx.print:print:1.0.0] /Users/Jason-Lally/.gradle/caches/transforms-2/files-2.1/6b1132090a8a1ffc60b82d3452ca52ad/print-1.0.0/AndroidManifest.xml:17:1-22:12
INJECTED from /Users/Jason-Lally/Desktop/cs481_final/android/app/src/debug/AndroidManifest.xml:1:1-7:12
INJECTED from /Users/Jason-Lally/Desktop/cs481_final/android/app/src/debug/AndroidManifest.xml:1:1-7:12
INJECTED from /Users/Jason-Lally/Desktop/cs481_final/android/app/src/debug/AndroidManifest.xml:1:1-7:12
	package
		ADDED from /Users/Jason-Lally/Desktop/cs481_final/android/app/src/main/AndroidManifest.xml:2:5-40
		INJECTED from /Users/Jason-Lally/Desktop/cs481_final/android/app/src/main/AndroidManifest.xml
		INJECTED from /Users/Jason-Lally/Desktop/cs481_final/android/app/src/debug/AndroidManifest.xml
	android:versionName
		INJECTED from /Users/Jason-Lally/Desktop/cs481_final/android/app/src/main/AndroidManifest.xml
		ADDED from /Users/Jason-Lally/Desktop/cs481_final/android/app/src/main/AndroidManifest.xml:1:1-48:12
		INJECTED from /Users/Jason-Lally/Desktop/cs481_final/android/app/src/debug/AndroidManifest.xml
	android:versionCode
		INJECTED from /Users/Jason-Lally/Desktop/cs481_final/android/app/src/main/AndroidManifest.xml
		ADDED from /Users/Jason-Lally/Desktop/cs481_final/android/app/src/main/AndroidManifest.xml:1:1-48:12
		INJECTED from /Users/Jason-Lally/Desktop/cs481_final/android/app/src/debug/AndroidManifest.xml
	xmlns:android
		ADDED from /Users/Jason-Lally/Desktop/cs481_final/android/app/src/main/AndroidManifest.xml:1:11-69
application
ADDED from /Users/Jason-Lally/Desktop/cs481_final/android/app/src/main/AndroidManifest.xml:8:5-46:19
MERGED from [:flutter_inappwebview] /Users/Jason-Lally/Desktop/cs481_final/build/flutter_inappwebview/intermediates/library_manifest/debug/AndroidManifest.xml:7:5-18:19
MERGED from [:flutter_inappwebview] /Users/Jason-Lally/Desktop/cs481_final/build/flutter_inappwebview/intermediates/library_manifest/debug/AndroidManifest.xml:7:5-18:19
MERGED from [:url_launcher] /Users/Jason-Lally/Desktop/cs481_final/build/url_launcher/intermediates/library_manifest/debug/AndroidManifest.xml:7:5-12:19
MERGED from [:url_launcher] /Users/Jason-Lally/Desktop/cs481_final/build/url_launcher/intermediates/library_manifest/debug/AndroidManifest.xml:7:5-12:19
MERGED from [androidx.core:core:1.1.0] /Users/Jason-Lally/.gradle/caches/transforms-2/files-2.1/a528b13ac93e64cafa3d0480e2c93207/core-1.1.0/AndroidManifest.xml:24:5-89
MERGED from [androidx.core:core:1.1.0] /Users/Jason-Lally/.gradle/caches/transforms-2/files-2.1/a528b13ac93e64cafa3d0480e2c93207/core-1.1.0/AndroidManifest.xml:24:5-89
MERGED from [androidx.versionedparcelable:versionedparcelable:1.1.0] /Users/Jason-Lally/.gradle/caches/transforms-2/files-2.1/3a7eb299570065a3866b140e1a95969b/versionedparcelable-1.1.0/AndroidManifest.xml:24:5-25:19
MERGED from [androidx.versionedparcelable:versionedparcelable:1.1.0] /Users/Jason-Lally/.gradle/caches/transforms-2/files-2.1/3a7eb299570065a3866b140e1a95969b/versionedparcelable-1.1.0/AndroidManifest.xml:24:5-25:19
	android:appComponentFactory
		ADDED from [androidx.core:core:1.1.0] /Users/Jason-Lally/.gradle/caches/transforms-2/files-2.1/a528b13ac93e64cafa3d0480e2c93207/core-1.1.0/AndroidManifest.xml:24:18-86
	android:label
		ADDED from /Users/Jason-Lally/Desktop/cs481_final/android/app/src/main/AndroidManifest.xml:10:9-38
	android:icon
		ADDED from /Users/Jason-Lally/Desktop/cs481_final/android/app/src/main/AndroidManifest.xml:11:9-43
	android:name
		ADDED from /Users/Jason-Lally/Desktop/cs481_final/android/app/src/main/AndroidManifest.xml:9:9-57
activity#com.example.final_project.MainActivity
ADDED from /Users/Jason-Lally/Desktop/cs481_final/android/app/src/main/AndroidManifest.xml:12:9-40:20
	android:launchMode
		ADDED from /Users/Jason-Lally/Desktop/cs481_final/android/app/src/main/AndroidManifest.xml:14:13-43
	android:hardwareAccelerated
		ADDED from /Users/Jason-Lally/Desktop/cs481_final/android/app/src/main/AndroidManifest.xml:17:13-47
	android:windowSoftInputMode
		ADDED from /Users/Jason-Lally/Desktop/cs481_final/android/app/src/main/AndroidManifest.xml:18:13-55
	android:configChanges
		ADDED from /Users/Jason-Lally/Desktop/cs481_final/android/app/src/main/AndroidManifest.xml:16:13-163
	android:theme
		ADDED from /Users/Jason-Lally/Desktop/cs481_final/android/app/src/main/AndroidManifest.xml:15:13-47
	android:name
		ADDED from /Users/Jason-Lally/Desktop/cs481_final/android/app/src/main/AndroidManifest.xml:13:13-41
meta-data#io.flutter.embedding.android.NormalTheme
ADDED from /Users/Jason-Lally/Desktop/cs481_final/android/app/src/main/AndroidManifest.xml:23:13-26:17
	android:resource
		ADDED from /Users/Jason-Lally/Desktop/cs481_final/android/app/src/main/AndroidManifest.xml:25:15-52
	android:name
		ADDED from /Users/Jason-Lally/Desktop/cs481_final/android/app/src/main/AndroidManifest.xml:24:15-70
meta-data#io.flutter.embedding.android.SplashScreenDrawable
ADDED from /Users/Jason-Lally/Desktop/cs481_final/android/app/src/main/AndroidManifest.xml:32:13-35:17
	android:resource
		ADDED from /Users/Jason-Lally/Desktop/cs481_final/android/app/src/main/AndroidManifest.xml:34:15-61
	android:name
		ADDED from /Users/Jason-Lally/Desktop/cs481_final/android/app/src/main/AndroidManifest.xml:33:15-79
intent-filter#action:name:android.intent.action.MAIN+category:name:android.intent.category.LAUNCHER
ADDED from /Users/Jason-Lally/Desktop/cs481_final/android/app/src/main/AndroidManifest.xml:36:13-39:29
action#android.intent.action.MAIN
ADDED from /Users/Jason-Lally/Desktop/cs481_final/android/app/src/main/AndroidManifest.xml:37:17-68
	android:name
		ADDED from /Users/Jason-Lally/Desktop/cs481_final/android/app/src/main/AndroidManifest.xml:37:25-66
category#android.intent.category.LAUNCHER
ADDED from /Users/Jason-Lally/Desktop/cs481_final/android/app/src/main/AndroidManifest.xml:38:17-76
	android:name
		ADDED from /Users/Jason-Lally/Desktop/cs481_final/android/app/src/main/AndroidManifest.xml:38:27-74
meta-data#flutterEmbedding
ADDED from /Users/Jason-Lally/Desktop/cs481_final/android/app/src/main/AndroidManifest.xml:43:9-45:33
	android:value
		ADDED from /Users/Jason-Lally/Desktop/cs481_final/android/app/src/main/AndroidManifest.xml:45:13-30
	android:name
		ADDED from /Users/Jason-Lally/Desktop/cs481_final/android/app/src/main/AndroidManifest.xml:44:13-44
uses-permission#android.permission.INTERNET
ADDED from /Users/Jason-Lally/Desktop/cs481_final/android/app/src/main/AndroidManifest.xml:47:5-67
MERGED from /Users/Jason-Lally/Desktop/cs481_final/android/app/src/main/AndroidManifest.xml:47:5-67
MERGED from /Users/Jason-Lally/Desktop/cs481_final/android/app/src/main/AndroidManifest.xml:47:5-67
	android:name
		ADDED from /Users/Jason-Lally/Desktop/cs481_final/android/app/src/main/AndroidManifest.xml:47:22-64
uses-sdk
INJECTED from /Users/Jason-Lally/Desktop/cs481_final/android/app/src/main/AndroidManifest.xml reason: use-sdk injection requested
INJECTED from /Users/Jason-Lally/Desktop/cs481_final/android/app/src/main/AndroidManifest.xml
INJECTED from /Users/Jason-Lally/Desktop/cs481_final/android/app/src/main/AndroidManifest.xml
MERGED from [:flutter_inappwebview] /Users/Jason-Lally/Desktop/cs481_final/build/flutter_inappwebview/intermediates/library_manifest/debug/AndroidManifest.xml:5:5-44
MERGED from [:flutter_inappwebview] /Users/Jason-Lally/Desktop/cs481_final/build/flutter_inappwebview/intermediates/library_manifest/debug/AndroidManifest.xml:5:5-44
MERGED from [:email_launcher] /Users/Jason-Lally/Desktop/cs481_final/build/email_launcher/intermediates/library_manifest/debug/AndroidManifest.xml:5:5-44
MERGED from [:email_launcher] /Users/Jason-Lally/Desktop/cs481_final/build/email_launcher/intermediates/library_manifest/debug/AndroidManifest.xml:5:5-44
MERGED from [:url_launcher] /Users/Jason-Lally/Desktop/cs481_final/build/url_launcher/intermediates/library_manifest/debug/AndroidManifest.xml:5:5-44
MERGED from [:url_launcher] /Users/Jason-Lally/Desktop/cs481_final/build/url_launcher/intermediates/library_manifest/debug/AndroidManifest.xml:5:5-44
MERGED from [androidx.appcompat:appcompat:1.0.0] /Users/Jason-Lally/.gradle/caches/transforms-2/files-2.1/d8e69336e21c6a428e8a9e9d99518477/appcompat-1.0.0/AndroidManifest.xml:20:5-44
MERGED from [androidx.appcompat:appcompat:1.0.0] /Users/Jason-Lally/.gradle/caches/transforms-2/files-2.1/d8e69336e21c6a428e8a9e9d99518477/appcompat-1.0.0/AndroidManifest.xml:20:5-44
MERGED from [androidx.fragment:fragment:1.1.0] /Users/Jason-Lally/.gradle/caches/transforms-2/files-2.1/0986d0d74b8a2c7da8161f6370fc7744/fragment-1.1.0/AndroidManifest.xml:20:5-22:41
MERGED from [androidx.fragment:fragment:1.1.0] /Users/Jason-Lally/.gradle/caches/transforms-2/files-2.1/0986d0d74b8a2c7da8161f6370fc7744/fragment-1.1.0/AndroidManifest.xml:20:5-22:41
MERGED from [androidx.webkit:webkit:1.2.0] /Users/Jason-Lally/.gradle/caches/transforms-2/files-2.1/8a62ba38241af24f4b0566afddbc48f5/webkit-1.2.0/AndroidManifest.xml:20:5-22:41
MERGED from [androidx.webkit:webkit:1.2.0] /Users/Jason-Lally/.gradle/caches/transforms-2/files-2.1/8a62ba38241af24f4b0566afddbc48f5/webkit-1.2.0/AndroidManifest.xml:20:5-22:41
MERGED from [androidx.browser:browser:1.2.0] /Users/Jason-Lally/.gradle/caches/transforms-2/files-2.1/84bd3266e257a6ed6137b67f2b6129c6/browser-1.2.0/AndroidManifest.xml:20:5-22:41
MERGED from [androidx.browser:browser:1.2.0] /Users/Jason-Lally/.gradle/caches/transforms-2/files-2.1/84bd3266e257a6ed6137b67f2b6129c6/browser-1.2.0/AndroidManifest.xml:20:5-22:41
MERGED from [androidx.vectordrawable:vectordrawable-animated:1.0.0] /Users/Jason-Lally/.gradle/caches/transforms-2/files-2.1/f64fa5f7ac9fa4f53ef92dad5dfe2353/vectordrawable-animated-1.0.0/AndroidManifest.xml:20:5-44
MERGED from [androidx.vectordrawable:vectordrawable-animated:1.0.0] /Users/Jason-Lally/.gradle/caches/transforms-2/files-2.1/f64fa5f7ac9fa4f53ef92dad5dfe2353/vectordrawable-animated-1.0.0/AndroidManifest.xml:20:5-44
MERGED from [androidx.legacy:legacy-support-core-ui:1.0.0] /Users/Jason-Lally/.gradle/caches/transforms-2/files-2.1/f046f38cf99e9cbe4891b184ce64db19/legacy-support-core-ui-1.0.0/AndroidManifest.xml:20:5-44
MERGED from [androidx.legacy:legacy-support-core-ui:1.0.0] /Users/Jason-Lally/.gradle/caches/transforms-2/files-2.1/f046f38cf99e9cbe4891b184ce64db19/legacy-support-core-ui-1.0.0/AndroidManifest.xml:20:5-44
MERGED from [androidx.viewpager:viewpager:1.0.0] /Users/Jason-Lally/.gradle/caches/transforms-2/files-2.1/28d99d5113324aa067757f8ca41a426f/viewpager-1.0.0/AndroidManifest.xml:20:5-44
MERGED from [androidx.viewpager:viewpager:1.0.0] /Users/Jason-Lally/.gradle/caches/transforms-2/files-2.1/28d99d5113324aa067757f8ca41a426f/viewpager-1.0.0/AndroidManifest.xml:20:5-44
MERGED from [androidx.legacy:legacy-support-core-utils:1.0.0] /Users/Jason-Lally/.gradle/caches/transforms-2/files-2.1/0f0610cdcf96e6cfa9529b6a3246e3f6/legacy-support-core-utils-1.0.0/AndroidManifest.xml:20:5-44
MERGED from [androidx.legacy:legacy-support-core-utils:1.0.0] /Users/Jason-Lally/.gradle/caches/transforms-2/files-2.1/0f0610cdcf96e6cfa9529b6a3246e3f6/legacy-support-core-utils-1.0.0/AndroidManifest.xml:20:5-44
MERGED from [androidx.loader:loader:1.0.0] /Users/Jason-Lally/.gradle/caches/transforms-2/files-2.1/e1bbce6b0d79e8479b70e7bd729bb743/loader-1.0.0/AndroidManifest.xml:20:5-44
MERGED from [androidx.loader:loader:1.0.0] /Users/Jason-Lally/.gradle/caches/transforms-2/files-2.1/e1bbce6b0d79e8479b70e7bd729bb743/loader-1.0.0/AndroidManifest.xml:20:5-44
MERGED from [androidx.activity:activity:1.0.0] /Users/Jason-Lally/.gradle/caches/transforms-2/files-2.1/615cab8ad6393a9c868d48761bbea666/activity-1.0.0/AndroidManifest.xml:20:5-22:41
MERGED from [androidx.activity:activity:1.0.0] /Users/Jason-Lally/.gradle/caches/transforms-2/files-2.1/615cab8ad6393a9c868d48761bbea666/activity-1.0.0/AndroidManifest.xml:20:5-22:41
MERGED from [androidx.vectordrawable:vectordrawable:1.0.0] /Users/Jason-Lally/.gradle/caches/transforms-2/files-2.1/16c2aa160f52ee079d92e59ff0a723a2/vectordrawable-1.0.0/AndroidManifest.xml:20:5-44
MERGED from [androidx.vectordrawable:vectordrawable:1.0.0] /Users/Jason-Lally/.gradle/caches/transforms-2/files-2.1/16c2aa160f52ee079d92e59ff0a723a2/vectordrawable-1.0.0/AndroidManifest.xml:20:5-44
MERGED from [androidx.coordinatorlayout:coordinatorlayout:1.0.0] /Users/Jason-Lally/.gradle/caches/transforms-2/files-2.1/ae13efc3dbae5c9ee58d4933337fcd21/coordinatorlayout-1.0.0/AndroidManifest.xml:20:5-44
MERGED from [androidx.coordinatorlayout:coordinatorlayout:1.0.0] /Users/Jason-Lally/.gradle/caches/transforms-2/files-2.1/ae13efc3dbae5c9ee58d4933337fcd21/coordinatorlayout-1.0.0/AndroidManifest.xml:20:5-44
MERGED from [androidx.drawerlayout:drawerlayout:1.0.0] /Users/Jason-Lally/.gradle/caches/transforms-2/files-2.1/5bfbe01745d2a29d4e7cd137b17143f4/drawerlayout-1.0.0/AndroidManifest.xml:20:5-44
MERGED from [androidx.drawerlayout:drawerlayout:1.0.0] /Users/Jason-Lally/.gradle/caches/transforms-2/files-2.1/5bfbe01745d2a29d4e7cd137b17143f4/drawerlayout-1.0.0/AndroidManifest.xml:20:5-44
MERGED from [androidx.slidingpanelayout:slidingpanelayout:1.0.0] /Users/Jason-Lally/.gradle/caches/transforms-2/files-2.1/b046e47c43be2b85609c7f97cccc722e/slidingpanelayout-1.0.0/AndroidManifest.xml:20:5-44
MERGED from [androidx.slidingpanelayout:slidingpanelayout:1.0.0] /Users/Jason-Lally/.gradle/caches/transforms-2/files-2.1/b046e47c43be2b85609c7f97cccc722e/slidingpanelayout-1.0.0/AndroidManifest.xml:20:5-44
MERGED from [androidx.customview:customview:1.0.0] /Users/Jason-Lally/.gradle/caches/transforms-2/files-2.1/ef0bef029ab70f5fb29de019060cf5fd/customview-1.0.0/AndroidManifest.xml:20:5-44
MERGED from [androidx.customview:customview:1.0.0] /Users/Jason-Lally/.gradle/caches/transforms-2/files-2.1/ef0bef029ab70f5fb29de019060cf5fd/customview-1.0.0/AndroidManifest.xml:20:5-44
MERGED from [androidx.swiperefreshlayout:swiperefreshlayout:1.0.0] /Users/Jason-Lally/.gradle/caches/transforms-2/files-2.1/5fdf5da548a469ca3cc39dc72a350a99/swiperefreshlayout-1.0.0/AndroidManifest.xml:20:5-44
MERGED from [androidx.swiperefreshlayout:swiperefreshlayout:1.0.0] /Users/Jason-Lally/.gradle/caches/transforms-2/files-2.1/5fdf5da548a469ca3cc39dc72a350a99/swiperefreshlayout-1.0.0/AndroidManifest.xml:20:5-44
MERGED from [androidx.asynclayoutinflater:asynclayoutinflater:1.0.0] /Users/Jason-Lally/.gradle/caches/transforms-2/files-2.1/1403af03ba6e6e95b13bf5808de0f892/asynclayoutinflater-1.0.0/AndroidManifest.xml:20:5-44
MERGED from [androidx.asynclayoutinflater:asynclayoutinflater:1.0.0] /Users/Jason-Lally/.gradle/caches/transforms-2/files-2.1/1403af03ba6e6e95b13bf5808de0f892/asynclayoutinflater-1.0.0/AndroidManifest.xml:20:5-44
MERGED from [androidx.core:core:1.1.0] /Users/Jason-Lally/.gradle/caches/transforms-2/files-2.1/a528b13ac93e64cafa3d0480e2c93207/core-1.1.0/AndroidManifest.xml:20:5-22:41
MERGED from [androidx.core:core:1.1.0] /Users/Jason-Lally/.gradle/caches/transforms-2/files-2.1/a528b13ac93e64cafa3d0480e2c93207/core-1.1.0/AndroidManifest.xml:20:5-22:41
MERGED from [androidx.lifecycle:lifecycle-runtime:2.2.0] /Users/Jason-Lally/.gradle/caches/transforms-2/files-2.1/49ede1f7b9aa322a43288e9745adc2db/lifecycle-runtime-2.2.0/AndroidManifest.xml:20:5-22:41
MERGED from [androidx.lifecycle:lifecycle-runtime:2.2.0] /Users/Jason-Lally/.gradle/caches/transforms-2/files-2.1/49ede1f7b9aa322a43288e9745adc2db/lifecycle-runtime-2.2.0/AndroidManifest.xml:20:5-22:41
MERGED from [androidx.savedstate:savedstate:1.0.0] /Users/Jason-Lally/.gradle/caches/transforms-2/files-2.1/54d8b8735f730e83f07925f758092af3/savedstate-1.0.0/AndroidManifest.xml:20:5-22:41
MERGED from [androidx.savedstate:savedstate:1.0.0] /Users/Jason-Lally/.gradle/caches/transforms-2/files-2.1/54d8b8735f730e83f07925f758092af3/savedstate-1.0.0/AndroidManifest.xml:20:5-22:41
MERGED from [androidx.lifecycle:lifecycle-livedata:2.0.0] /Users/Jason-Lally/.gradle/caches/transforms-2/files-2.1/23edc849475fdda61367cb003f9b9f93/lifecycle-livedata-2.0.0/AndroidManifest.xml:20:5-44
MERGED from [androidx.lifecycle:lifecycle-livedata:2.0.0] /Users/Jason-Lally/.gradle/caches/transforms-2/files-2.1/23edc849475fdda61367cb003f9b9f93/lifecycle-livedata-2.0.0/AndroidManifest.xml:20:5-44
MERGED from [androidx.lifecycle:lifecycle-livedata-core:2.0.0] /Users/Jason-Lally/.gradle/caches/transforms-2/files-2.1/79f9d65ef8b1c716310f666473a689a7/lifecycle-livedata-core-2.0.0/AndroidManifest.xml:20:5-44
MERGED from [androidx.lifecycle:lifecycle-livedata-core:2.0.0] /Users/Jason-Lally/.gradle/caches/transforms-2/files-2.1/79f9d65ef8b1c716310f666473a689a7/lifecycle-livedata-core-2.0.0/AndroidManifest.xml:20:5-44
MERGED from [androidx.arch.core:core-runtime:2.0.0] /Users/Jason-Lally/.gradle/caches/transforms-2/files-2.1/077300052aa327ee6fc9bbb0ce309b24/core-runtime-2.0.0/AndroidManifest.xml:20:5-44
MERGED from [androidx.arch.core:core-runtime:2.0.0] /Users/Jason-Lally/.gradle/caches/transforms-2/files-2.1/077300052aa327ee6fc9bbb0ce309b24/core-runtime-2.0.0/AndroidManifest.xml:20:5-44
MERGED from [androidx.versionedparcelable:versionedparcelable:1.1.0] /Users/Jason-Lally/.gradle/caches/transforms-2/files-2.1/3a7eb299570065a3866b140e1a95969b/versionedparcelable-1.1.0/AndroidManifest.xml:20:5-22:41
MERGED from [androidx.versionedparcelable:versionedparcelable:1.1.0] /Users/Jason-Lally/.gradle/caches/transforms-2/files-2.1/3a7eb299570065a3866b140e1a95969b/versionedparcelable-1.1.0/AndroidManifest.xml:20:5-22:41
MERGED from [androidx.interpolator:interpolator:1.0.0] /Users/Jason-Lally/.gradle/caches/transforms-2/files-2.1/2ca8bc49d3a28fb6fa3bddf429b143ba/interpolator-1.0.0/AndroidManifest.xml:20:5-44
MERGED from [androidx.interpolator:interpolator:1.0.0] /Users/Jason-Lally/.gradle/caches/transforms-2/files-2.1/2ca8bc49d3a28fb6fa3bddf429b143ba/interpolator-1.0.0/AndroidManifest.xml:20:5-44
MERGED from [androidx.cursoradapter:cursoradapter:1.0.0] /Users/Jason-Lally/.gradle/caches/transforms-2/files-2.1/fefdd83516e8eeb5097956f9d9af4b04/cursoradapter-1.0.0/AndroidManifest.xml:20:5-44
MERGED from [androidx.cursoradapter:cursoradapter:1.0.0] /Users/Jason-Lally/.gradle/caches/transforms-2/files-2.1/fefdd83516e8eeb5097956f9d9af4b04/cursoradapter-1.0.0/AndroidManifest.xml:20:5-44
MERGED from [androidx.lifecycle:lifecycle-viewmodel:2.1.0] /Users/Jason-Lally/.gradle/caches/transforms-2/files-2.1/b80fad55c42c418cc210e235056767fb/lifecycle-viewmodel-2.1.0/AndroidManifest.xml:20:5-44
MERGED from [androidx.lifecycle:lifecycle-viewmodel:2.1.0] /Users/Jason-Lally/.gradle/caches/transforms-2/files-2.1/b80fad55c42c418cc210e235056767fb/lifecycle-viewmodel-2.1.0/AndroidManifest.xml:20:5-44
MERGED from [androidx.documentfile:documentfile:1.0.0] /Users/Jason-Lally/.gradle/caches/transforms-2/files-2.1/35bca835e72502cae5588ee7a59cf4b0/documentfile-1.0.0/AndroidManifest.xml:20:5-44
MERGED from [androidx.documentfile:documentfile:1.0.0] /Users/Jason-Lally/.gradle/caches/transforms-2/files-2.1/35bca835e72502cae5588ee7a59cf4b0/documentfile-1.0.0/AndroidManifest.xml:20:5-44
MERGED from [androidx.localbroadcastmanager:localbroadcastmanager:1.0.0] /Users/Jason-Lally/.gradle/caches/transforms-2/files-2.1/bce9999f881bb3993a5b24e08740cbbf/localbroadcastmanager-1.0.0/AndroidManifest.xml:20:5-44
MERGED from [androidx.localbroadcastmanager:localbroadcastmanager:1.0.0] /Users/Jason-Lally/.gradle/caches/transforms-2/files-2.1/bce9999f881bb3993a5b24e08740cbbf/localbroadcastmanager-1.0.0/AndroidManifest.xml:20:5-44
MERGED from [androidx.print:print:1.0.0] /Users/Jason-Lally/.gradle/caches/transforms-2/files-2.1/6b1132090a8a1ffc60b82d3452ca52ad/print-1.0.0/AndroidManifest.xml:20:5-44
MERGED from [androidx.print:print:1.0.0] /Users/Jason-Lally/.gradle/caches/transforms-2/files-2.1/6b1132090a8a1ffc60b82d3452ca52ad/print-1.0.0/AndroidManifest.xml:20:5-44
INJECTED from /Users/Jason-Lally/Desktop/cs481_final/android/app/src/debug/AndroidManifest.xml
INJECTED from /Users/Jason-Lally/Desktop/cs481_final/android/app/src/debug/AndroidManifest.xml
	android:targetSdkVersion
		INJECTED from /Users/Jason-Lally/Desktop/cs481_final/android/app/src/main/AndroidManifest.xml
		INJECTED from /Users/Jason-Lally/Desktop/cs481_final/android/app/src/debug/AndroidManifest.xml
	android:minSdkVersion
		INJECTED from /Users/Jason-Lally/Desktop/cs481_final/android/app/src/main/AndroidManifest.xml
		INJECTED from /Users/Jason-Lally/Desktop/cs481_final/android/app/src/debug/AndroidManifest.xml
activity#com.pichillilorenzo.flutter_inappwebview.InAppBrowser.InAppBrowserActivity
ADDED from [:flutter_inappwebview] /Users/Jason-Lally/Desktop/cs481_final/build/flutter_inappwebview/intermediates/library_manifest/debug/AndroidManifest.xml:8:9-11:47
	android:configChanges
		ADDED from [:flutter_inappwebview] /Users/Jason-Lally/Desktop/cs481_final/build/flutter_inappwebview/intermediates/library_manifest/debug/AndroidManifest.xml:10:13-59
	android:theme
		ADDED from [:flutter_inappwebview] /Users/Jason-Lally/Desktop/cs481_final/build/flutter_inappwebview/intermediates/library_manifest/debug/AndroidManifest.xml:11:13-44
	android:name
		ADDED from [:flutter_inappwebview] /Users/Jason-Lally/Desktop/cs481_final/build/flutter_inappwebview/intermediates/library_manifest/debug/AndroidManifest.xml:9:13-102
activity#com.pichillilorenzo.flutter_inappwebview.ChromeCustomTabs.ChromeCustomTabsActivity
ADDED from [:flutter_inappwebview] /Users/Jason-Lally/Desktop/cs481_final/build/flutter_inappwebview/intermediates/library_manifest/debug/AndroidManifest.xml:12:9-15:55
	android:configChanges
		ADDED from [:flutter_inappwebview] /Users/Jason-Lally/Desktop/cs481_final/build/flutter_inappwebview/intermediates/library_manifest/debug/AndroidManifest.xml:14:13-59
	android:theme
		ADDED from [:flutter_inappwebview] /Users/Jason-Lally/Desktop/cs481_final/build/flutter_inappwebview/intermediates/library_manifest/debug/AndroidManifest.xml:15:13-52
	android:name
		ADDED from [:flutter_inappwebview] /Users/Jason-Lally/Desktop/cs481_final/build/flutter_inappwebview/intermediates/library_manifest/debug/AndroidManifest.xml:13:13-110
receiver#com.pichillilorenzo.flutter_inappwebview.ChromeCustomTabs.ActionBroadcastReceiver
ADDED from [:flutter_inappwebview] /Users/Jason-Lally/Desktop/cs481_final/build/flutter_inappwebview/intermediates/library_manifest/debug/AndroidManifest.xml:17:9-118
	android:name
		ADDED from [:flutter_inappwebview] /Users/Jason-Lally/Desktop/cs481_final/build/flutter_inappwebview/intermediates/library_manifest/debug/AndroidManifest.xml:17:19-115
activity#io.flutter.plugins.urllauncher.WebViewActivity
ADDED from [:url_launcher] /Users/Jason-Lally/Desktop/cs481_final/build/url_launcher/intermediates/library_manifest/debug/AndroidManifest.xml:8:9-11:74
	android:exported
		ADDED from [:url_launcher] /Users/Jason-Lally/Desktop/cs481_final/build/url_launcher/intermediates/library_manifest/debug/AndroidManifest.xml:10:13-37
	android:theme
		ADDED from [:url_launcher] /Users/Jason-Lally/Desktop/cs481_final/build/url_launcher/intermediates/library_manifest/debug/AndroidManifest.xml:11:13-71
	android:name
		ADDED from [:url_launcher] /Users/Jason-Lally/Desktop/cs481_final/build/url_launcher/intermediates/library_manifest/debug/AndroidManifest.xml:9:13-74
